<svg width="23" height="24" viewBox="0 0 23 24" fill="white" xmlns="http://www.w3.org/2000/svg">
<g clip-path="url(#clip0_3490_106)">
<path d="M22.2177 7.89037C22.0067 7.71594 17.1989 3.84964 16.142 3.00929C15.149 2.21561 13.4513 0.5 11.5 0.5C9.55915 0.5 7.87768 2.19432 6.858 3.00929C5.75907 3.88302 0.970088 7.73485 0.786807 7.88552C0.540798 8.08781 0.342653 8.34208 0.206611 8.63006C0.0705697 8.91804 9.03375e-06 9.23258 0 9.55108L0 21.3438C0 22.5346 0.965371 23.5 2.15625 23.5H20.8438C22.0346 23.5 23 22.5346 23 21.3438V9.55216C23 9.23466 22.9299 8.92107 22.7947 8.63381C22.6594 8.34654 22.4624 8.09268 22.2177 7.89037ZM20.8438 21.0742C20.8438 21.1457 20.8154 21.2143 20.7648 21.2648C20.7143 21.3154 20.6457 21.3438 20.5742 21.3438H2.42578C2.3543 21.3438 2.28574 21.3154 2.23519 21.2648C2.18465 21.2143 2.15625 21.1457 2.15625 21.0742V9.67965C2.15625 9.59821 2.19291 9.52126 2.25625 9.47009C2.96916 8.89446 7.14343 5.537 8.20228 4.69521C9.01829 4.04344 10.4398 2.65625 11.5 2.65625C12.5643 2.65625 14.0092 4.0654 14.7977 4.69521C15.8567 5.53709 20.0312 8.89509 20.7438 9.47112C20.7751 9.49637 20.8003 9.52829 20.8175 9.56453C20.8348 9.60078 20.8438 9.64044 20.8438 9.68059V21.0742ZM19.4067 12.6422C19.5975 12.874 19.5623 13.217 19.3283 13.405C18.0267 14.4509 16.6656 15.5432 16.142 15.9594C15.1223 16.7744 13.4408 18.4688 11.5 18.4688C9.54805 18.4688 7.84844 16.7511 6.858 15.9594C6.35132 15.5566 4.98278 14.4584 3.67182 13.4049C3.43778 13.2168 3.40261 12.8739 3.59344 12.6421L4.27885 11.8098C4.46654 11.5819 4.80251 11.5473 5.0326 11.7323C6.31817 12.7655 7.66349 13.8452 8.20228 14.2735C8.9908 14.9033 10.4357 16.3125 11.5 16.3125C12.5602 16.3125 13.9818 14.9253 14.7977 14.2735C15.3365 13.8452 16.6819 12.7655 17.9675 11.7324C18.1976 11.5475 18.5336 11.5821 18.7212 11.81L19.4067 12.6422Z" fill="white"/>
</g>
<defs>
<clipPath id="clip0_3490_106">
<rect width="23" height="23" fill="white" transform="translate(0 0.5)"/>
</clipPath>
</defs>
</svg>
